tBgp4PeerEntry                    MAX_BGP_PEERS
tRouteProfile                     MAX_BGP_ROUTES
tBgp4Info                         MAX_BGP_ROUTE_INFO_ENTRIES
tBgp4RcvdPathAttr                 MAX_BGP_RCVD_PATH_ATTRIBS
tBgp4AdvtPathAttr                 MAX_BGP_ADVT_PATH_ATTRIBS
tAsPath                           MAX_BGP_AS_PATHS
tLinkNode                         MAX_BGP_LINK_NOCDES
tAdvRtLinkNode                    MAX_BGP_ADVT_LINK_NODES 
tBgp4QMsg                         MAX_BGP_Q_MSGS
tBgp4IgpMetricEntry               MAX_BGP_IGP_METRIC_ENTRIES
tBgp4IfInfo                       MAX_BGP_IF_INFOS
tTmrAppTimer                      MAX_BGP_TIMERS
tRtRefreshData                    MAX_BGP_RT_REF_DATA
tTcpMd5AuthPasswd                 MAX_BGP_MD5_AUTH_PASSWDS
tSupCapsInfo                      MAX_BGP_SUPP_CAP_INFOS
tSnpaInfoNode                     MAX_BGP_SNPA_INFO_NODES
tAfiSafiSpecInfo                  MAX_BGP_AFI_SAFI_SPEC_INFOS
tExtCommFilterInfo                MAX_BGP_EXT_COMM_IN_FILTER_INFOS
tExtCommFilterInfo                MAX_BGP_EXT_COMM_OUT_FILTER_INFOS
tRouteConfExtComm                 MAX_BGP_RT_CONF_EXT_COMMUNITIES
tExtCommProfile                   MAX_BGP_EXT_COMM_PROFILES
tPeerLinkBandWidth                MAX_BGP_PEER_LINK_BANDWIDTHS
tRouteExtCommSetStatus            MAX_BGP_RT_EXT_COMM_SET_CONFIGS
tCommFilterInfo                   MAX_BGP_COMM_IN_FILTER_INFOS
tCommFilterInfo                   MAX_BGP_COMM_OUT_FILTER_INFOS
tRouteConfComm                    MAX_BGP_RT_CONF_COMMUNITIES
tCommProfile                      MAX_BGP_COMM_PROFILES
tRouteCommSetStatus               MAX_BGP_RT_COMM_SET_CONFIGS
tRtDampHist                       MAX_BGP_RT_DAMP_HISTORIES
tPeerDampHist                     MAX_BGP_PEER_DAMP_HISTORIES
tReusePeer                        MAX_BGP_REUSE_PEERS
tAggregator                       MAX_BGP_AGGR_NODE
tClusterList                      MAX_BGP_CLUSTER_LIST
tCommunity                        MAX_BGP_COMMUNITY_NODE
tExtCommunity                     MAX_BGP_EXT_COMM_NODE
tAfiSafiNode                      MAX_BGP_AFI_SAFI_NODE
tBufNodeMsg                       MAX_BGP_BUFNODE_MSGS
tPeerNode                         MAX_BGP_PEER_NODE
UINT1[MAX_BGP_ATTR_LEN]           MAX_BGP_ATTRIBUTE_SIZE
tBufNode                          MAX_BGP_BUF_NODES
tBgpCliMemBlkBuf                  MAX_BGP_CLI_MEM_BUF
tBgpCxtNode                       MAX_BGP_CXT_NODES
tBgpGlobalCxt                     MAX_BGP_GLOBAL_CXT
tFilteringRMap                    MAX_BGP_RMAP_FILTERS
