tIp6AddrProfile               MAX_IP6_ADDR_PROFILES
tIp6FragQueEntry              MAX_IP6_FRAG_QUEUES
tIp6AddrInfo                  MAX_IP6_UNICAST_ADDRESS
tIp6Params                    MAX_IP6_PARAMS
tIp6LlocalInfo                MAX_IP6_LINK_LOCAL_ADDRESS
tIp6MacFilterNode             MAX_IP6_MAC_FILTER_NODE 
tIp6McastInfo                 MAX_IP6_MCAST_ADDRESS
tNd6CacheEntry                MAX_IP6_ND6_CACHE_ENTRIES
tNd6CacheLanInfo              MAX_IP6_ND6_CACHE_LAN_ENTRIES
tNd6ProxyListNode             MAX_IP6_ND6_PROXYLIST_ENTRIES
tPmtuEntry                    MAX_IP6_PMTU_ENTRIES
tIp6PrefixNode                MAX_IP6_PREFIX_ADDRESS
tIp6ReasmEntry                MAX_IP6_REASM_ENTRIES
tIp6TunlAccessListNode        MAX_IP6_TUNL_ACCESS_LIST
tIp6TunlIf                    MAX_IP6_TUNNEL_INTERFACES
tIp6Cxt                       MAX_IP6_CONTEXT
tUdp6Port                     MAX_IP6_UDP6_PORT
tIp6If                        MAX_IP6_INTERFACES
tIp6RAEntry                   MAX_IP6_RA_ENTRY
tIcmp6Stats                   MAX_IP6_ICMP6_STATS_NODE
tNd6RtEntry                   MAX_IP6HOST_ND6_ROUTES
tIp6AddrSelPolicy             MAX_IP6_POLICY_TABLE_ENTRIES
tIp6SrcAddr                   MAX_IP6_SRC_ADDR_ENTRIES
tIp6DstAddr                   MAX_IP6_DST_ADDR_ENTRIES
tIp6ScopeZoneInfo             MAX_IP6_SCOPE_ZONES
tIp6IfZoneMapInfo             MAX_IP6_INTERFACE_SCOPE_ZONE
tAnycastNDCache               MAX_IP6_ANYCAST_ND_CACHE_ENTRIES 
tIp6SzBuf                     MAX_IP6_BUFFER_ENTRIES
tNdRedirectData               MAX_IP6_ND_REDIRECT_DATA
tNd6RmMsg                     MAX_ND6_QUEUE_MSG
tNd6RedTable                  MAX_ND6_DYN_MSG
tIp6IsScopeZoneValid          MAX_IP6_SCOPE_ZONES_VALID
